<?xml version="1.0" encoding="UTF-8"?>
<svg width="196px" height="196px" viewBox="0 0 196 196" version="1.1" xmlns="http://www.w3.org/2000/svg" xmlns:xlink="http://www.w3.org/1999/xlink" xmlns:sketch="http://www.bohemiancoding.com/sketch/ns">
    <!-- Generator: Sketch 3.3.3 (12072) - http://www.bohemiancoding.com/sketch -->
    <title>004-youtube</title>
    <desc>Created with Sketch.</desc>
    <defs></defs>
    <g id="Page-1" stroke="none" stroke-width="1" fill="none" fill-rule="evenodd" sketch:type="MSPage">
        <g id="004-youtube" sketch:type="MSLayerGroup" fill="#FFFFFF">
            <g id="Group" sketch:type="MSShapeGroup">
                <path d="M86.3,79.2 L116.9,98 L86.3,116.8 L86.3,79.2 L86.3,79.2 Z" id="Shape"></path>
                <path d="M98,0 C58.4,0 22.6,23.9 7.5,60.5 C-7.7,97.1 0.7,139.3 28.7,167.3 C56.7,195.3 98.9,203.7 135.5,188.5 C172.1,173.3 196,137.6 196,98 C196,43.9 152.1,0 98,0 L98,0 L98,0 Z M144.7,121.6 C142.7,127.6 136.3,131.3 130.3,132.1 C108.8,134.4 87.2,134.4 65.7,132.1 C59.7,131.3 53.2,127.6 51.3,121.6 C48.2,106 48.2,90 51.3,74.4 C53.3,68.3 59.7,64.7 65.8,63.9 C87.3,61.6 108.9,61.6 130.4,63.9 C136.4,64.7 142.9,68.4 144.8,74.4 C147.8,90 147.8,106 144.7,121.6 L144.7,121.6 L144.7,121.6 Z" id="Shape"></path>
            </g>
        </g>
    </g>
</svg>