<?xml version="1.0" encoding="utf-8"?>
<!-- Generator: Adobe Illustrator 27.4.1, SVG Export Plug-In . SVG Version: 6.00 Build 0)  -->
<svg version="1.1" id="Layer_1" xmlns="http://www.w3.org/2000/svg" xmlns:xlink="http://www.w3.org/1999/xlink" x="0px" y="0px"
	 viewBox="0 0 82 82" style="enable-background:new 0 0 82 82;" xml:space="preserve">
<style type="text/css">
	.st0{fill:#FFFFFF;}
</style>
<g id="slack-blue" transform="translate(611 1128.354)">
	<path id="Path_167" class="st0" d="M-562.2-1087.2L-562.2-1087.2c4,0,7.2-3.2,7.2-7.2c0,0,0,0,0,0v-20.9c0-4-3.2-7.2-7.2-7.2
		c-4,0-7.2,3.2-7.2,7.2v20.9C-569.4-1090.4-566.2-1087.2-562.2-1087.2C-562.2-1087.2-562.2-1087.2-562.2-1087.2z M-566.5-1115.3
		c0-2.4,1.9-4.3,4.3-4.3c2.4,0,4.3,1.9,4.3,4.3v20.9c0,2.4-1.9,4.3-4.3,4.3l0,0c-2.4,0-4.3-1.9-4.3-4.3L-566.5-1115.3z"/>
	<path id="Path_168" class="st0" d="M-579.1-1085.1L-579.1-1085.1c-4,0-7.2,3.2-7.2,7.2c0,0,0,0,0,0v20.9c0,4,3.2,7.2,7.2,7.2
		c4,0,7.2-3.2,7.2-7.2v-20.9C-571.9-1081.9-575.2-1085.1-579.1-1085.1C-579.1-1085.1-579.1-1085.1-579.1-1085.1z M-574.8-1057
		c0,2.4-1.9,4.3-4.3,4.3s-4.3-1.9-4.3-4.3v-20.9c0-2.4,1.9-4.3,4.3-4.3l0,0c2.4,0,4.3,1.9,4.3,4.3L-574.8-1057z"/>
	<path id="Path_169" class="st0" d="M-579.1-1101.9h-21c-4,0-7.2,3.2-7.2,7.2c0,4,3.2,7.2,7.2,7.2c0,0,0,0,0,0h21
		c4,0,7.2-3.2,7.2-7.2c0,0,0,0,0,0l0,0C-571.9-1098.6-575.2-1101.9-579.1-1101.9C-579.1-1101.9-579.1-1101.9-579.1-1101.9z
		 M-574.8-1094.6c0,2.4-1.9,4.3-4.3,4.3h-21c-2.4,0-4.3-1.9-4.3-4.3c0-2.4,1.9-4.3,4.3-4.3h21c2.4,0,4.3,1.8,4.3,4.2
		C-574.8-1094.7-574.8-1094.7-574.8-1094.6L-574.8-1094.6z"/>
	<path id="Path_170" class="st0" d="M-550-1087.5h6.2c4.2,0,7.5-3.4,7.5-7.5v-1.4c0-4.2-3.4-7.6-7.6-7.6s-7.6,3.4-7.6,7.6v7.5
		C-551.4-1088.2-550.8-1087.6-550-1087.5L-550-1087.5z M-548.5-1096.5c0-2.6,2.1-4.8,4.8-4.8c2.6,0,4.8,2.1,4.8,4.8v1.4
		c0,2.6-2.1,4.8-4.7,4.8c0,0,0,0-0.1,0h-4.8V-1096.5z"/>
	<path id="Path_171" class="st0" d="M-591.3-1084.8h-6.2c-4.2,0-7.5,3.4-7.5,7.5v1.4c0,4.2,3.4,7.6,7.6,7.6s7.6-3.4,7.6-7.6l0,0
		v-7.5C-589.9-1084.1-590.6-1084.8-591.3-1084.8L-591.3-1084.8z M-592.8-1075.8c0,2.6-2.1,4.8-4.8,4.8c-2.6,0-4.8-2.1-4.8-4.8v-1.4
		c0-2.6,2.1-4.8,4.7-4.8c0,0,0,0,0.1,0h4.8L-592.8-1075.8L-592.8-1075.8z"/>
	<path id="Path_172" class="st0" d="M-580.7-1104.6h6.2c0.8,0,1.4-0.7,1.4-1.4v-7.5c0-4.2-3.4-7.6-7.6-7.6s-7.6,3.4-7.6,7.6v1.4
		C-588.2-1108-584.9-1104.6-580.7-1104.6L-580.7-1104.6z M-585.4-1113.6c0-2.6,2.1-4.8,4.8-4.8c2.6,0,4.8,2.1,4.8,4.8v6.1h-4.8
		c-2.6,0-4.8-2.1-4.8-4.7c0,0,0,0,0-0.1V-1113.6z"/>
	<path id="Path_173" class="st0" d="M-560.7-1067.7h-6.1c-0.8,0-1.4,0.7-1.4,1.4v7.5c0,4.2,3.4,7.6,7.6,7.6s7.6-3.4,7.6-7.6v-1.4
		C-553.1-1064.3-556.5-1067.7-560.7-1067.7C-560.7-1067.7-560.7-1067.7-560.7-1067.7z M-556-1058.7c0,2.6-2.1,4.8-4.8,4.8
		s-4.8-2.1-4.8-4.8c0,0,0,0,0,0v-6.1h4.8c2.6,0,4.8,2.1,4.8,4.7c0,0,0,0,0,0.1V-1058.7z"/>
	<path id="Path_174" class="st0" d="M-541.2-1084.8h-21c-4,0-7.2,3.2-7.2,7.2c0,4,3.2,7.2,7.2,7.2c0,0,0,0,0,0h4.2
		c0.8,0,1.4-0.6,1.4-1.4s-0.6-1.4-1.4-1.4l0,0h-4.2c-2.4,0-4.3-1.9-4.3-4.3s1.9-4.3,4.3-4.3l0,0h21c2.4,0,4.3,1.9,4.3,4.3
		s-1.9,4.3-4.3,4.3h-3.8c-0.8,0-1.4,0.6-1.4,1.4s0.6,1.4,1.4,1.4h3.8c4,0,7.2-3.2,7.2-7.2c0,0,0,0,0,0
		C-534.1-1081.5-537.3-1084.7-541.2-1084.8z"/>
	<path id="Path_175" class="st0" d="M-550.6-1073.1c-0.5-0.4-1.2-0.3-1.7,0.1c-0.5,0.4-0.6,1-0.4,1.6c0.2,0.6,0.7,0.9,1.3,1
		c0.6,0,1.1-0.3,1.3-0.9C-549.9-1072-550.1-1072.7-550.6-1073.1L-550.6-1073.1z"/>
</g>
</svg>
